(kicad_sch (version 20211123) (generator eeschema)

  (uuid d14c3db1-9a2d-444e-8b46-cd93eb974bd3)

  (paper "A4")

  (lib_symbols
    (symbol "Device:C" (pin_numbers hide) (pin_names (offset 0.254)) (in_bom yes) (on_board yes)
      (property "Reference" "C" (id 0) (at 0.635 2.54 0)
        (effects (font (size 1.27 1.27)) (justify left))
      )
      (property "Value" "C" (id 1) (at 0.635 -2.54 0)
        (effects (font (size 1.27 1.27)) (justify left))
      )
      (property "Footprint" "" (id 2) (at 0.9652 -3.81 0)
        (effects (font (size 1.27 1.27)) hide)
      )
      (property "Datasheet" "~" (id 3) (at 0 0 0)
        (effects (font (size 1.27 1.27)) hide)
      )
      (property "ki_keywords" "cap capacitor" (id 4) (at 0 0 0)
        (effects (font (size 1.27 1.27)) hide)
      )
      (property "ki_description" "Unpolarized capacitor" (id 5) (at 0 0 0)
        (effects (font (size 1.27 1.27)) hide)
      )
      (property "ki_fp_filters" "C_*" (id 6) (at 0 0 0)
        (effects (font (size 1.27 1.27)) hide)
      )
      (symbol "C_0_1"
        (polyline
          (pts
            (xy -2.032 -0.762)
            (xy 2.032 -0.762)
          )
          (stroke (width 0.508) (type default) (color 0 0 0 0))
          (fill (type none))
        )
        (polyline
          (pts
            (xy -2.032 0.762)
            (xy 2.032 0.762)
          )
          (stroke (width 0.508) (type default) (color 0 0 0 0))
          (fill (type none))
        )
      )
      (symbol "C_1_1"
        (pin passive line (at 0 3.81 270) (length 2.794)
          (name "~" (effects (font (size 1.27 1.27))))
          (number "1" (effects (font (size 1.27 1.27))))
        )
        (pin passive line (at 0 -3.81 90) (length 2.794)
          (name "~" (effects (font (size 1.27 1.27))))
          (number "2" (effects (font (size 1.27 1.27))))
        )
      )
    )
    (symbol "Device:FerriteBead" (pin_numbers hide) (pin_names (offset 0)) (in_bom yes) (on_board yes)
      (property "Reference" "FB" (id 0) (at -3.81 0.635 90)
        (effects (font (size 1.27 1.27)))
      )
      (property "Value" "FerriteBead" (id 1) (at 3.81 0 90)
        (effects (font (size 1.27 1.27)))
      )
      (property "Footprint" "" (id 2) (at -1.778 0 90)
        (effects (font (size 1.27 1.27)) hide)
      )
      (property "Datasheet" "~" (id 3) (at 0 0 0)
        (effects (font (size 1.27 1.27)) hide)
      )
      (property "ki_keywords" "L ferrite bead inductor filter" (id 4) (at 0 0 0)
        (effects (font (size 1.27 1.27)) hide)
      )
      (property "ki_description" "Ferrite bead" (id 5) (at 0 0 0)
        (effects (font (size 1.27 1.27)) hide)
      )
      (property "ki_fp_filters" "Inductor_* L_* *Ferrite*" (id 6) (at 0 0 0)
        (effects (font (size 1.27 1.27)) hide)
      )
      (symbol "FerriteBead_0_1"
        (polyline
          (pts
            (xy 0 -1.27)
            (xy 0 -1.2192)
          )
          (stroke (width 0) (type default) (color 0 0 0 0))
          (fill (type none))
        )
        (polyline
          (pts
            (xy 0 1.27)
            (xy 0 1.2954)
          )
          (stroke (width 0) (type default) (color 0 0 0 0))
          (fill (type none))
        )
        (polyline
          (pts
            (xy -2.7686 0.4064)
            (xy -1.7018 2.2606)
            (xy 2.7686 -0.3048)
            (xy 1.6764 -2.159)
            (xy -2.7686 0.4064)
          )
          (stroke (width 0) (type default) (color 0 0 0 0))
          (fill (type none))
        )
      )
      (symbol "FerriteBead_1_1"
        (pin passive line (at 0 3.81 270) (length 2.54)
          (name "~" (effects (font (size 1.27 1.27))))
          (number "1" (effects (font (size 1.27 1.27))))
        )
        (pin passive line (at 0 -3.81 90) (length 2.54)
          (name "~" (effects (font (size 1.27 1.27))))
          (number "2" (effects (font (size 1.27 1.27))))
        )
      )
    )
    (symbol "Various:ESP32-WROVER-IE" (in_bom yes) (on_board yes)
      (property "Reference" "U?" (id 0) (at -12.7 29.21 0)
        (effects (font (size 1.27 1.27)) (justify left))
      )
      (property "Value" "ESP32-WROVER-IE" (id 1) (at 2.54 29.21 0)
        (effects (font (size 1.27 1.27)) (justify left))
      )
      (property "Footprint" "RF_Module:ESP32-WROVER-IE" (id 2) (at 21.082 -27.686 0)
        (effects (font (size 1.27 1.27)) hide)
      )
      (property "Datasheet" "https://cdn-reichelt.de/documents/datenblatt/A200/ESP32-WROVER-E_ESP32-WROVER-IE_DATASHEET_EN-2.pdf" (id 3) (at 0 -23.622 0)
        (effects (font (size 1.27 1.27)) hide)
      )
      (property "ki_keywords" "RF Radio ESP ESP32 Espressif onboard PCB antenna" (id 4) (at 0 0 0)
        (effects (font (size 1.27 1.27)) hide)
      )
      (property "ki_description" "RF Module, ESP32-D0WDQ6 SoC, Wi-Fi 802.11b/g/n, 32-bit, 2.7-3.6V, onboard antenna, SMD" (id 5) (at 0 0 0)
        (effects (font (size 1.27 1.27)) hide)
      )
      (property "ki_fp_filters" "ESP32?S2?WROVER*" (id 6) (at 0 0 0)
        (effects (font (size 1.27 1.27)) hide)
      )
      (symbol "ESP32-WROVER-IE_0_1"
        (rectangle (start -12.7 27.94) (end 12.7 -25.4)
          (stroke (width 0.254) (type default) (color 0 0 0 0))
          (fill (type background))
        )
      )
      (symbol "ESP32-WROVER-IE_1_1"
        (pin power_in line (at -5.08 -27.94 90) (length 2.54)
          (name "GND" (effects (font (size 1.27 1.27))))
          (number "1" (effects (font (size 1.27 1.27))))
        )
        (pin bidirectional line (at -15.24 -6.35 0) (length 2.54)
          (name "IO25" (effects (font (size 1.27 1.27))))
          (number "10" (effects (font (size 1.27 1.27))))
        )
        (pin bidirectional line (at -15.24 -8.89 0) (length 2.54)
          (name "IO26" (effects (font (size 1.27 1.27))))
          (number "11" (effects (font (size 1.27 1.27))))
        )
        (pin bidirectional line (at -15.24 -11.43 0) (length 2.54)
          (name "IO27" (effects (font (size 1.27 1.27))))
          (number "12" (effects (font (size 1.27 1.27))))
        )
        (pin bidirectional line (at -15.24 11.43 0) (length 2.54)
          (name "IO14" (effects (font (size 1.27 1.27))))
          (number "13" (effects (font (size 1.27 1.27))))
        )
        (pin bidirectional line (at -15.24 13.97 0) (length 2.54)
          (name "IO12" (effects (font (size 1.27 1.27))))
          (number "14" (effects (font (size 1.27 1.27))))
        )
        (pin power_in line (at 0 -27.94 90) (length 2.54)
          (name "GND" (effects (font (size 1.27 1.27))))
          (number "15" (effects (font (size 1.27 1.27))))
        )
        (pin no_connect line (at 15.24 -8.89 180) (length 2.54)
          (name "NC" (effects (font (size 1.27 1.27))))
          (number "17" (effects (font (size 1.27 1.27))))
        )
        (pin no_connect line (at 15.24 -6.35 180) (length 2.54)
          (name "NC" (effects (font (size 1.27 1.27))))
          (number "18" (effects (font (size 1.27 1.27))))
        )
        (pin no_connect line (at 15.24 -3.81 180) (length 2.54)
          (name "NC" (effects (font (size 1.27 1.27))))
          (number "19" (effects (font (size 1.27 1.27))))
        )
        (pin power_in line (at 0 30.48 270) (length 2.54)
          (name "3V3" (effects (font (size 1.27 1.27))))
          (number "2" (effects (font (size 1.27 1.27))))
        )
        (pin no_connect line (at 15.24 -1.27 180) (length 2.54)
          (name "NC" (effects (font (size 1.27 1.27))))
          (number "20" (effects (font (size 1.27 1.27))))
        )
        (pin bidirectional line (at -15.24 8.89 0) (length 2.54)
          (name "IO15" (effects (font (size 1.27 1.27))))
          (number "23" (effects (font (size 1.27 1.27))))
        )
        (pin bidirectional line (at -15.24 21.59 0) (length 2.54)
          (name "IO02" (effects (font (size 1.27 1.27))))
          (number "24" (effects (font (size 1.27 1.27))))
        )
        (pin bidirectional line (at -15.24 24.13 0) (length 2.54)
          (name "IO00" (effects (font (size 1.27 1.27))))
          (number "25" (effects (font (size 1.27 1.27))))
        )
        (pin bidirectional line (at -15.24 19.05 0) (length 2.54)
          (name "IO04" (effects (font (size 1.27 1.27))))
          (number "26" (effects (font (size 1.27 1.27))))
        )
        (pin no_connect line (at 15.24 1.27 180) (length 2.54)
          (name "NC" (effects (font (size 1.27 1.27))))
          (number "27" (effects (font (size 1.27 1.27))))
        )
        (pin no_connect line (at 15.24 3.81 180) (length 2.54)
          (name "NC" (effects (font (size 1.27 1.27))))
          (number "28" (effects (font (size 1.27 1.27))))
        )
        (pin bidirectional line (at -15.24 16.51 0) (length 2.54)
          (name "IO05" (effects (font (size 1.27 1.27))))
          (number "29" (effects (font (size 1.27 1.27))))
        )
        (pin input line (at 15.24 19.05 180) (length 2.54)
          (name "EN" (effects (font (size 1.27 1.27))))
          (number "3" (effects (font (size 1.27 1.27))))
        )
        (pin bidirectional line (at -15.24 6.35 0) (length 2.54)
          (name "IO18" (effects (font (size 1.27 1.27))))
          (number "30" (effects (font (size 1.27 1.27))))
        )
        (pin bidirectional line (at -15.24 3.81 0) (length 2.54)
          (name "IO19" (effects (font (size 1.27 1.27))))
          (number "31" (effects (font (size 1.27 1.27))))
        )
        (pin no_connect line (at 15.24 6.35 180) (length 2.54)
          (name "NC" (effects (font (size 1.27 1.27))))
          (number "32" (effects (font (size 1.27 1.27))))
        )
        (pin bidirectional line (at -15.24 1.27 0) (length 2.54)
          (name "IO21" (effects (font (size 1.27 1.27))))
          (number "33" (effects (font (size 1.27 1.27))))
        )
        (pin input line (at 15.24 21.59 180) (length 2.54)
          (name "RXD0" (effects (font (size 1.27 1.27))))
          (number "34" (effects (font (size 1.27 1.27))))
        )
        (pin output line (at 15.24 24.13 180) (length 2.54)
          (name "TXD0" (effects (font (size 1.27 1.27))))
          (number "35" (effects (font (size 1.27 1.27))))
        )
        (pin bidirectional line (at -15.24 -1.27 0) (length 2.54)
          (name "IO22" (effects (font (size 1.27 1.27))))
          (number "36" (effects (font (size 1.27 1.27))))
        )
        (pin bidirectional line (at -15.24 -3.81 0) (length 2.54)
          (name "IO23" (effects (font (size 1.27 1.27))))
          (number "37" (effects (font (size 1.27 1.27))))
        )
        (pin power_in line (at 5.08 -27.94 90) (length 2.54)
          (name "GND" (effects (font (size 1.27 1.27))))
          (number "38" (effects (font (size 1.27 1.27))))
        )
        (pin passive line (at 0 -27.94 90) (length 2.54) hide
          (name "GND" (effects (font (size 1.27 1.27))))
          (number "39" (effects (font (size 1.27 1.27))))
        )
        (pin bidirectional line (at 15.24 11.303 180) (length 2.54)
          (name "SENSOR_VP" (effects (font (size 1.27 1.27))))
          (number "4" (effects (font (size 1.27 1.27))))
        )
        (pin bidirectional line (at 15.24 13.843 180) (length 2.54)
          (name "SENSOR_VN" (effects (font (size 1.27 1.27))))
          (number "5" (effects (font (size 1.27 1.27))))
        )
        (pin bidirectional line (at -15.24 -19.05 0) (length 2.54)
          (name "IO34" (effects (font (size 1.27 1.27))))
          (number "6" (effects (font (size 1.27 1.27))))
        )
        (pin bidirectional line (at -15.24 -21.59 0) (length 2.54)
          (name "IO35" (effects (font (size 1.27 1.27))))
          (number "7" (effects (font (size 1.27 1.27))))
        )
        (pin bidirectional line (at -15.24 -13.97 0) (length 2.54)
          (name "IO32" (effects (font (size 1.27 1.27))))
          (number "8" (effects (font (size 1.27 1.27))))
        )
        (pin bidirectional line (at -15.24 -16.51 0) (length 2.54)
          (name "IO33" (effects (font (size 1.27 1.27))))
          (number "9" (effects (font (size 1.27 1.27))))
        )
      )
    )
    (symbol "power:+3V3" (power) (pin_names (offset 0)) (in_bom yes) (on_board yes)
      (property "Reference" "#PWR" (id 0) (at 0 -3.81 0)
        (effects (font (size 1.27 1.27)) hide)
      )
      (property "Value" "+3V3" (id 1) (at 0 3.556 0)
        (effects (font (size 1.27 1.27)))
      )
      (property "Footprint" "" (id 2) (at 0 0 0)
        (effects (font (size 1.27 1.27)) hide)
      )
      (property "Datasheet" "" (id 3) (at 0 0 0)
        (effects (font (size 1.27 1.27)) hide)
      )
      (property "ki_keywords" "power-flag" (id 4) (at 0 0 0)
        (effects (font (size 1.27 1.27)) hide)
      )
      (property "ki_description" "Power symbol creates a global label with name \"+3V3\"" (id 5) (at 0 0 0)
        (effects (font (size 1.27 1.27)) hide)
      )
      (symbol "+3V3_0_1"
        (polyline
          (pts
            (xy -0.762 1.27)
            (xy 0 2.54)
          )
          (stroke (width 0) (type default) (color 0 0 0 0))
          (fill (type none))
        )
        (polyline
          (pts
            (xy 0 0)
            (xy 0 2.54)
          )
          (stroke (width 0) (type default) (color 0 0 0 0))
          (fill (type none))
        )
        (polyline
          (pts
            (xy 0 2.54)
            (xy 0.762 1.27)
          )
          (stroke (width 0) (type default) (color 0 0 0 0))
          (fill (type none))
        )
      )
      (symbol "+3V3_1_1"
        (pin power_in line (at 0 0 90) (length 0) hide
          (name "+3V3" (effects (font (size 1.27 1.27))))
          (number "1" (effects (font (size 1.27 1.27))))
        )
      )
    )
    (symbol "power:GND" (power) (pin_names (offset 0)) (in_bom yes) (on_board yes)
      (property "Reference" "#PWR" (id 0) (at 0 -6.35 0)
        (effects (font (size 1.27 1.27)) hide)
      )
      (property "Value" "GND" (id 1) (at 0 -3.81 0)
        (effects (font (size 1.27 1.27)))
      )
      (property "Footprint" "" (id 2) (at 0 0 0)
        (effects (font (size 1.27 1.27)) hide)
      )
      (property "Datasheet" "" (id 3) (at 0 0 0)
        (effects (font (size 1.27 1.27)) hide)
      )
      (property "ki_keywords" "power-flag" (id 4) (at 0 0 0)
        (effects (font (size 1.27 1.27)) hide)
      )
      (property "ki_description" "Power symbol creates a global label with name \"GND\" , ground" (id 5) (at 0 0 0)
        (effects (font (size 1.27 1.27)) hide)
      )
      (symbol "GND_0_1"
        (polyline
          (pts
            (xy 0 0)
            (xy 0 -1.27)
            (xy 1.27 -1.27)
            (xy 0 -2.54)
            (xy -1.27 -1.27)
            (xy 0 -1.27)
          )
          (stroke (width 0) (type default) (color 0 0 0 0))
          (fill (type none))
        )
      )
      (symbol "GND_1_1"
        (pin power_in line (at 0 0 270) (length 0) hide
          (name "GND" (effects (font (size 1.27 1.27))))
          (number "1" (effects (font (size 1.27 1.27))))
        )
      )
    )
  )

  (junction (at 167.64 43.18) (diameter 0) (color 0 0 0 0)
    (uuid 5c60dec2-cf87-4897-9df3-1d936f260470)
  )
  (junction (at 156.21 43.18) (diameter 0) (color 0 0 0 0)
    (uuid 812ddd8f-767d-4047-939f-af3dce677531)
  )

  (bus_entry (at 127 93.98) (size 2.54 -2.54)
    (stroke (width 0) (type default) (color 0 0 0 0))
    (uuid 1a994ea3-019b-4341-97ce-ba57e1ee9972)
  )
  (bus_entry (at 127 96.52) (size 2.54 -2.54)
    (stroke (width 0) (type default) (color 0 0 0 0))
    (uuid 1a994ea3-019b-4341-97ce-ba57e1ee9973)
  )
  (bus_entry (at 127 101.6) (size 2.54 -2.54)
    (stroke (width 0) (type default) (color 0 0 0 0))
    (uuid 1a994ea3-019b-4341-97ce-ba57e1ee9974)
  )
  (bus_entry (at 127 104.14) (size 2.54 -2.54)
    (stroke (width 0) (type default) (color 0 0 0 0))
    (uuid 1a994ea3-019b-4341-97ce-ba57e1ee9975)
  )
  (bus_entry (at 127 106.68) (size 2.54 -2.54)
    (stroke (width 0) (type default) (color 0 0 0 0))
    (uuid 1a994ea3-019b-4341-97ce-ba57e1ee9976)
  )
  (bus_entry (at 127 109.22) (size 2.54 -2.54)
    (stroke (width 0) (type default) (color 0 0 0 0))
    (uuid 1a994ea3-019b-4341-97ce-ba57e1ee9977)
  )
  (bus_entry (at 127 111.76) (size 2.54 -2.54)
    (stroke (width 0) (type default) (color 0 0 0 0))
    (uuid 1a994ea3-019b-4341-97ce-ba57e1ee9978)
  )
  (bus_entry (at 127 114.3) (size 2.54 -2.54)
    (stroke (width 0) (type default) (color 0 0 0 0))
    (uuid 1a994ea3-019b-4341-97ce-ba57e1ee9979)
  )
  (bus_entry (at 127 116.84) (size 2.54 -2.54)
    (stroke (width 0) (type default) (color 0 0 0 0))
    (uuid 1a994ea3-019b-4341-97ce-ba57e1ee997a)
  )
  (bus_entry (at 127 81.28) (size 2.54 -2.54)
    (stroke (width 0) (type default) (color 0 0 0 0))
    (uuid 1a994ea3-019b-4341-97ce-ba57e1ee997b)
  )
  (bus_entry (at 127 99.06) (size 2.54 -2.54)
    (stroke (width 0) (type default) (color 0 0 0 0))
    (uuid 1a994ea3-019b-4341-97ce-ba57e1ee997c)
  )
  (bus_entry (at 127 83.82) (size 2.54 -2.54)
    (stroke (width 0) (type default) (color 0 0 0 0))
    (uuid 1a994ea3-019b-4341-97ce-ba57e1ee997d)
  )
  (bus_entry (at 127 86.36) (size 2.54 -2.54)
    (stroke (width 0) (type default) (color 0 0 0 0))
    (uuid 1a994ea3-019b-4341-97ce-ba57e1ee997e)
  )
  (bus_entry (at 127 88.9) (size 2.54 -2.54)
    (stroke (width 0) (type default) (color 0 0 0 0))
    (uuid 1a994ea3-019b-4341-97ce-ba57e1ee997f)
  )
  (bus_entry (at 127 91.44) (size 2.54 -2.54)
    (stroke (width 0) (type default) (color 0 0 0 0))
    (uuid 1a994ea3-019b-4341-97ce-ba57e1ee9980)
  )
  (bus_entry (at 129.54 68.58) (size -2.54 2.54)
    (stroke (width 0) (type default) (color 0 0 0 0))
    (uuid 2b9d2ddd-d8a3-47b4-8281-871ec9889694)
  )
  (bus_entry (at 129.54 71.12) (size -2.54 2.54)
    (stroke (width 0) (type default) (color 0 0 0 0))
    (uuid 2b9d2ddd-d8a3-47b4-8281-871ec9889695)
  )
  (bus_entry (at 129.54 76.2) (size -2.54 2.54)
    (stroke (width 0) (type default) (color 0 0 0 0))
    (uuid 2b9d2ddd-d8a3-47b4-8281-871ec9889696)
  )
  (bus_entry (at 129.54 73.66) (size -2.54 2.54)
    (stroke (width 0) (type default) (color 0 0 0 0))
    (uuid 2b9d2ddd-d8a3-47b4-8281-871ec9889697)
  )

  (bus (pts (xy 127 101.6) (xy 127 104.14))
    (stroke (width 0) (type default) (color 0 0 0 0))
    (uuid 00495e97-dce2-485c-94ab-a2b119bb9938)
  )
  (bus (pts (xy 127 109.22) (xy 127 111.76))
    (stroke (width 0) (type default) (color 0 0 0 0))
    (uuid 141e6420-b774-40bc-9f1f-ec9cf9974330)
  )
  (bus (pts (xy 127 96.52) (xy 127 99.06))
    (stroke (width 0) (type default) (color 0 0 0 0))
    (uuid 1c4b158c-6c8a-4d05-947a-cb1ad96a8aec)
  )
  (bus (pts (xy 127 71.12) (xy 127 73.66))
    (stroke (width 0) (type default) (color 0 0 0 0))
    (uuid 22fc9a52-0c9e-46e1-add7-e7f8347eca95)
  )
  (bus (pts (xy 127 68.58) (xy 127 71.12))
    (stroke (width 0) (type default) (color 0 0 0 0))
    (uuid 24134d1c-2a21-4159-89ca-dec26b7e21c0)
  )
  (bus (pts (xy 127 78.74) (xy 127 81.28))
    (stroke (width 0) (type default) (color 0 0 0 0))
    (uuid 25c8b60b-61d3-4518-9a31-b547a3865a47)
  )
  (bus (pts (xy 127 81.28) (xy 127 83.82))
    (stroke (width 0) (type default) (color 0 0 0 0))
    (uuid 2afc1981-ca71-4993-ba31-a3bb68b3c511)
  )

  (wire (pts (xy 129.54 73.66) (xy 134.62 73.66))
    (stroke (width 0) (type default) (color 0 0 0 0))
    (uuid 31b19e3c-89c4-4d23-bf35-271156ea31e7)
  )
  (bus (pts (xy 127 111.76) (xy 127 114.3))
    (stroke (width 0) (type default) (color 0 0 0 0))
    (uuid 351e11e8-0f4e-471e-9d26-6ddaa89aa63d)
  )
  (bus (pts (xy 127 106.68) (xy 127 109.22))
    (stroke (width 0) (type default) (color 0 0 0 0))
    (uuid 380ba4dd-d172-40c2-b76e-e3f8c87b44fe)
  )
  (bus (pts (xy 127 104.14) (xy 127 106.68))
    (stroke (width 0) (type default) (color 0 0 0 0))
    (uuid 3b1b3ed8-2656-421a-8ff4-873cad5ef0c5)
  )

  (wire (pts (xy 129.54 91.44) (xy 134.62 91.44))
    (stroke (width 0) (type default) (color 0 0 0 0))
    (uuid 3f97857b-7a41-41ae-aeb5-4b57b56994b3)
  )
  (wire (pts (xy 129.54 83.82) (xy 134.62 83.82))
    (stroke (width 0) (type default) (color 0 0 0 0))
    (uuid 4735a2a3-e607-45b5-946e-0d06c9980aae)
  )
  (wire (pts (xy 129.54 76.2) (xy 134.62 76.2))
    (stroke (width 0) (type default) (color 0 0 0 0))
    (uuid 57f7b361-5836-4ade-977d-aac7c5683c3a)
  )
  (wire (pts (xy 149.86 62.23) (xy 149.86 43.18))
    (stroke (width 0) (type default) (color 0 0 0 0))
    (uuid 5a4483c0-a754-46a5-9c0f-7666e0ac976d)
  )
  (wire (pts (xy 129.54 111.76) (xy 134.62 111.76))
    (stroke (width 0) (type default) (color 0 0 0 0))
    (uuid 5cf28a14-fba4-41a8-954e-0912dd428459)
  )
  (wire (pts (xy 129.54 81.28) (xy 134.62 81.28))
    (stroke (width 0) (type default) (color 0 0 0 0))
    (uuid 60085aa2-d1f0-4c27-b575-1f5404bac98a)
  )
  (bus (pts (xy 127 83.82) (xy 127 86.36))
    (stroke (width 0) (type default) (color 0 0 0 0))
    (uuid 65a00e31-a4a8-446b-a7e9-fa591dc3b54a)
  )

  (wire (pts (xy 156.21 43.18) (xy 167.64 43.18))
    (stroke (width 0) (type default) (color 0 0 0 0))
    (uuid 6d857d21-9524-4a9e-b264-662d8d5933f6)
  )
  (bus (pts (xy 127 86.36) (xy 127 88.9))
    (stroke (width 0) (type default) (color 0 0 0 0))
    (uuid 7547fc77-d92e-4b59-98da-896996b8218e)
  )
  (bus (pts (xy 127 76.2) (xy 127 78.74))
    (stroke (width 0) (type default) (color 0 0 0 0))
    (uuid 7616d2bf-b827-4f36-9648-13372ac843fe)
  )

  (wire (pts (xy 129.54 114.3) (xy 134.62 114.3))
    (stroke (width 0) (type default) (color 0 0 0 0))
    (uuid 7619c03a-ee3f-4dda-bcf0-13ad85dfed39)
  )
  (wire (pts (xy 129.54 109.22) (xy 134.62 109.22))
    (stroke (width 0) (type default) (color 0 0 0 0))
    (uuid 88287045-8e01-49d7-8c2e-78678b163c0c)
  )
  (bus (pts (xy 127 91.44) (xy 127 93.98))
    (stroke (width 0) (type default) (color 0 0 0 0))
    (uuid 8bfd0024-837a-4008-8ed8-37daf9155643)
  )

  (wire (pts (xy 149.86 43.18) (xy 156.21 43.18))
    (stroke (width 0) (type default) (color 0 0 0 0))
    (uuid 903f543f-c0bd-4fc8-b740-e4185a761fcf)
  )
  (wire (pts (xy 129.54 93.98) (xy 134.62 93.98))
    (stroke (width 0) (type default) (color 0 0 0 0))
    (uuid 90af4cd3-e769-46de-9e7d-d006c7dadc4d)
  )
  (wire (pts (xy 129.54 104.14) (xy 134.62 104.14))
    (stroke (width 0) (type default) (color 0 0 0 0))
    (uuid 92dcc353-1dbd-47c2-a448-ad9e68e8fd9a)
  )
  (wire (pts (xy 129.54 78.74) (xy 134.62 78.74))
    (stroke (width 0) (type default) (color 0 0 0 0))
    (uuid a4af5cdc-4193-4337-8fcc-117e746739b7)
  )
  (bus (pts (xy 127 73.66) (xy 127 76.2))
    (stroke (width 0) (type default) (color 0 0 0 0))
    (uuid a52c77da-5e85-4f3f-9065-e8b11a536638)
  )
  (bus (pts (xy 127 93.98) (xy 127 96.52))
    (stroke (width 0) (type default) (color 0 0 0 0))
    (uuid acf3ae5e-6915-478d-89d2-bd1b5af9f0d2)
  )

  (wire (pts (xy 129.54 71.12) (xy 134.62 71.12))
    (stroke (width 0) (type default) (color 0 0 0 0))
    (uuid b0a41c66-ccde-41d5-bc4d-fbeaa25ef76b)
  )
  (wire (pts (xy 129.54 88.9) (xy 134.62 88.9))
    (stroke (width 0) (type default) (color 0 0 0 0))
    (uuid b6d94e2a-85cc-4dce-b809-3155335e4c14)
  )
  (wire (pts (xy 129.54 99.06) (xy 134.62 99.06))
    (stroke (width 0) (type default) (color 0 0 0 0))
    (uuid c180ab02-6b06-4231-908e-24d37c76a6ed)
  )
  (bus (pts (xy 127 116.84) (xy 127 118.11))
    (stroke (width 0) (type default) (color 0 0 0 0))
    (uuid c7968912-d044-4b39-9b99-fb8b42007e93)
  )
  (bus (pts (xy 127 114.3) (xy 127 116.84))
    (stroke (width 0) (type default) (color 0 0 0 0))
    (uuid cae3c6f4-342b-4060-9e3c-e8f8d69a1fb3)
  )

  (wire (pts (xy 129.54 68.58) (xy 134.62 68.58))
    (stroke (width 0) (type default) (color 0 0 0 0))
    (uuid cc459720-ce64-45d9-9fae-c2eaee0bf456)
  )
  (wire (pts (xy 129.54 86.36) (xy 134.62 86.36))
    (stroke (width 0) (type default) (color 0 0 0 0))
    (uuid ceb4020d-faa3-4795-9be4-4f09145b097a)
  )
  (wire (pts (xy 167.64 38.1) (xy 167.64 43.18))
    (stroke (width 0) (type default) (color 0 0 0 0))
    (uuid d8eeef79-4fc2-4a8c-a730-40238aaad64b)
  )
  (wire (pts (xy 129.54 96.52) (xy 134.62 96.52))
    (stroke (width 0) (type default) (color 0 0 0 0))
    (uuid e270df5e-964b-4864-9b37-7e6f4c260659)
  )
  (bus (pts (xy 127 99.06) (xy 127 101.6))
    (stroke (width 0) (type default) (color 0 0 0 0))
    (uuid e364a170-d388-42a7-8cd5-94edb53d619d)
  )

  (wire (pts (xy 129.54 101.6) (xy 134.62 101.6))
    (stroke (width 0) (type default) (color 0 0 0 0))
    (uuid e4cb9c6d-d1df-472e-86aa-0a005292c580)
  )
  (wire (pts (xy 129.54 106.68) (xy 134.62 106.68))
    (stroke (width 0) (type default) (color 0 0 0 0))
    (uuid ea69bb8a-1884-4887-8b4a-1098fc374289)
  )
  (bus (pts (xy 127 88.9) (xy 127 91.44))
    (stroke (width 0) (type default) (color 0 0 0 0))
    (uuid ec346c5b-21e3-4e71-bd91-955fc6840f08)
  )

  (label "IO05" (at 129.54 76.2 0)
    (effects (font (size 1.27 1.27)) (justify left bottom))
    (uuid 0313d698-c99d-4ba2-aa78-9a1306be5d4a)
  )
  (label "IO15" (at 129.54 83.82 0)
    (effects (font (size 1.27 1.27)) (justify left bottom))
    (uuid 0d574bca-4d8d-4901-86ee-55e37de3b29f)
  )
  (label "IO27" (at 129.54 104.14 0)
    (effects (font (size 1.27 1.27)) (justify left bottom))
    (uuid 1e2bf35d-b445-4ead-addb-4cb4644aeb86)
  )
  (label "IO04" (at 129.54 73.66 0)
    (effects (font (size 1.27 1.27)) (justify left bottom))
    (uuid 3af19f8d-7a35-40dc-8193-de88c64e85be)
  )
  (label "IO18" (at 129.54 86.36 0)
    (effects (font (size 1.27 1.27)) (justify left bottom))
    (uuid 3c253311-6468-4db7-a056-8885332a234a)
  )
  (label "IO25" (at 129.54 99.06 0)
    (effects (font (size 1.27 1.27)) (justify left bottom))
    (uuid 55b7766e-f7f9-4821-aa96-fc20b52c19c0)
  )
  (label "IO21" (at 129.54 91.44 0)
    (effects (font (size 1.27 1.27)) (justify left bottom))
    (uuid 5e02fff8-15af-4331-9aa7-b6218ed95cd0)
  )
  (label "IO34" (at 129.54 111.76 0)
    (effects (font (size 1.27 1.27)) (justify left bottom))
    (uuid 669f18df-61ba-4c77-8cc3-23ddf7f059b7)
  )
  (label "IO22" (at 129.54 93.98 0)
    (effects (font (size 1.27 1.27)) (justify left bottom))
    (uuid 6725fb7b-bbca-48a2-b8b9-e6de012e4699)
  )
  (label "IO26" (at 129.54 101.6 0)
    (effects (font (size 1.27 1.27)) (justify left bottom))
    (uuid 6e35a7ec-80ec-4f54-ba7d-0ecff02e6c09)
  )
  (label "IO02" (at 129.54 71.12 0)
    (effects (font (size 1.27 1.27)) (justify left bottom))
    (uuid 703327cf-a8f9-4b69-8af9-c3e9bfeaa407)
  )
  (label "IO23" (at 129.54 96.52 0)
    (effects (font (size 1.27 1.27)) (justify left bottom))
    (uuid 749e5541-30c3-43c5-97bd-16a88951f8d2)
  )
  (label "IO14" (at 129.54 81.28 0)
    (effects (font (size 1.27 1.27)) (justify left bottom))
    (uuid 7c07720a-98cb-422f-96f2-72a54eb30620)
  )
  (label "IO19" (at 129.54 88.9 0)
    (effects (font (size 1.27 1.27)) (justify left bottom))
    (uuid b4dfe8bf-2dc5-4843-88a5-97c063f528d7)
  )
  (label "IO32" (at 129.54 106.68 0)
    (effects (font (size 1.27 1.27)) (justify left bottom))
    (uuid b69ec3f3-9b27-4624-b354-800d94375a8e)
  )
  (label "IO00" (at 129.54 68.58 0)
    (effects (font (size 1.27 1.27)) (justify left bottom))
    (uuid c743cc65-6867-4ee9-90c1-816c5b13dbdf)
  )
  (label "IO33" (at 129.54 109.22 0)
    (effects (font (size 1.27 1.27)) (justify left bottom))
    (uuid d65b3ce8-88d2-4efd-be94-63347e743734)
  )
  (label "IO35" (at 129.54 114.3 0)
    (effects (font (size 1.27 1.27)) (justify left bottom))
    (uuid de502238-d799-4962-bba5-935bfd7475f5)
  )
  (label "IO12" (at 129.54 78.74 0)
    (effects (font (size 1.27 1.27)) (justify left bottom))
    (uuid fb82b4c1-9469-4da1-adc0-f1fdd9982c31)
  )

  (global_label "TXD0" (shape input) (at 165.1 68.58 0) (fields_autoplaced)
    (effects (font (size 1.27 1.27)) (justify left))
    (uuid 167ef5da-bf59-4166-9ea7-e26e41bf3eae)
    (property "Intersheet References" "${INTERSHEET_REFS}" (id 0) (at 172.1698 68.5006 0)
      (effects (font (size 1.27 1.27)) (justify left) hide)
    )
  )
  (global_label "RXD0" (shape input) (at 165.1 71.12 0) (fields_autoplaced)
    (effects (font (size 1.27 1.27)) (justify left))
    (uuid 6a9209a9-4889-45f0-97f5-6bcc4ac90cf3)
    (property "Intersheet References" "${INTERSHEET_REFS}" (id 0) (at 172.4721 71.0406 0)
      (effects (font (size 1.27 1.27)) (justify left) hide)
    )
  )
  (global_label "ENABLE" (shape input) (at 215.9 63.5 90) (fields_autoplaced)
    (effects (font (size 1.27 1.27)) (justify left))
    (uuid db90c858-c20f-4201-8214-909fa7169fba)
    (property "Intersheet References" "${INTERSHEET_REFS}" (id 0) (at 215.8206 54.0717 90)
      (effects (font (size 1.27 1.27)) (justify left) hide)
    )
  )
  (global_label "ENABLE" (shape input) (at 165.1 73.66 0) (fields_autoplaced)
    (effects (font (size 1.27 1.27)) (justify left))
    (uuid eaf21c47-1741-4d0a-bbeb-69d8584ddabe)
    (property "Intersheet References" "${INTERSHEET_REFS}" (id 0) (at 174.5283 73.5806 0)
      (effects (font (size 1.27 1.27)) (justify left) hide)
    )
  )

  (symbol (lib_id "Device:C") (at 215.9 67.31 0) (unit 1)
    (in_bom yes) (on_board yes) (fields_autoplaced)
    (uuid 1f688f0c-d810-457b-a95c-33a544593ea2)
    (property "Reference" "C3" (id 0) (at 219.71 66.0399 0)
      (effects (font (size 1.27 1.27)) (justify left))
    )
    (property "Value" "220n" (id 1) (at 219.71 68.5799 0)
      (effects (font (size 1.27 1.27)) (justify left))
    )
    (property "Footprint" "" (id 2) (at 216.8652 71.12 0)
      (effects (font (size 1.27 1.27)) hide)
    )
    (property "Datasheet" "~" (id 3) (at 215.9 67.31 0)
      (effects (font (size 1.27 1.27)) hide)
    )
    (pin "1" (uuid 80b9e2e9-f4d4-458c-b8fb-4073b289ac46))
    (pin "2" (uuid 2340b87a-ce1f-40aa-94ed-94aca41ec42c))
  )

  (symbol (lib_id "Various:ESP32-WROVER-IE") (at 149.86 92.71 0) (unit 1)
    (in_bom yes) (on_board yes) (fields_autoplaced)
    (uuid 5ba91311-d0a8-4bb8-8af0-8c05330566de)
    (property "Reference" "U1" (id 0) (at 151.8794 59.69 0)
      (effects (font (size 1.27 1.27)) (justify left))
    )
    (property "Value" "ESP32-WROVER-IE" (id 1) (at 151.8794 62.23 0)
      (effects (font (size 1.27 1.27)) (justify left))
    )
    (property "Footprint" "RF_Module:ESP32-WROVER-IE" (id 2) (at 170.942 120.396 0)
      (effects (font (size 1.27 1.27)) hide)
    )
    (property "Datasheet" "https://cdn-reichelt.de/documents/datenblatt/A200/ESP32-WROVER-E_ESP32-WROVER-IE_DATASHEET_EN-2.pdf" (id 3) (at 149.86 116.332 0)
      (effects (font (size 1.27 1.27)) hide)
    )
    (pin "1" (uuid e9b6c614-3392-499b-a7ac-d0eede194d3c))
    (pin "10" (uuid 33bf2179-b30a-4f94-ae8e-16a468969042))
    (pin "11" (uuid 55de1421-ee30-4dba-9814-ba54bce521f8))
    (pin "12" (uuid fd5048da-a6a9-4f64-b91b-8940d4b3bd15))
    (pin "13" (uuid 8d3dc917-5cbf-4194-b829-dc319cd2cff7))
    (pin "14" (uuid 322f7ffd-6839-4aee-8240-23256ff30982))
    (pin "15" (uuid 98bfcbf9-b93e-4cdb-b00b-931bf07f812a))
    (pin "17" (uuid f01014ea-5e4b-4fec-a4b1-7ce0a92c870f))
    (pin "18" (uuid a4f8cfd2-ac2f-46bd-86e4-af5877f156ac))
    (pin "19" (uuid 93019414-a08b-459e-9324-287af08e28ba))
    (pin "2" (uuid acd25a02-5398-4e84-99a9-302506ba7d51))
    (pin "20" (uuid a0601d6e-a6c5-430a-9b1b-eca3b6d39aa0))
    (pin "23" (uuid db46bb06-9853-490f-a7e4-66b8b87ab9cb))
    (pin "24" (uuid 2a11b311-11c5-4b5b-b6a5-1a8be536bb4b))
    (pin "25" (uuid a7644f6d-db7f-48d9-abf3-8e59be646bf8))
    (pin "26" (uuid b2bf3667-7ea7-428f-b84f-ab8c3f0492a9))
    (pin "27" (uuid f30c3ddb-1e66-47f8-97bf-fc06701499d7))
    (pin "28" (uuid 4305c925-3b8d-4c51-93e1-6c6eb54fbebb))
    (pin "29" (uuid fab5a2de-4657-406a-8a22-4bcac5284408))
    (pin "3" (uuid c596f076-f22b-460f-b48d-982a523db67d))
    (pin "30" (uuid 72dc7086-81bf-4383-8dfd-69db422981ac))
    (pin "31" (uuid ef3935c2-8b42-43ce-912a-625ea9681f1d))
    (pin "32" (uuid 000a4206-e6b1-47ae-b486-e760979b3a00))
    (pin "33" (uuid a28c432f-b64b-41e6-865e-8aa02830ef78))
    (pin "34" (uuid 430ff678-04e1-432d-91d2-76fac59dd7b6))
    (pin "35" (uuid deb206b9-3bb1-4c60-bc81-aae8fc9fbd03))
    (pin "36" (uuid 8e974c34-a38f-4828-ade9-7db71e1450b0))
    (pin "37" (uuid dd8af06a-6ff6-495c-870a-3bb44ec11029))
    (pin "38" (uuid 7123bb69-c74f-4885-8da4-7e6533b55c70))
    (pin "39" (uuid 25bd68d6-ba16-4f4e-9b23-5e7c3008ecd6))
    (pin "4" (uuid 4a381ba3-006f-4316-bc50-e657b044561f))
    (pin "5" (uuid 7c386372-b15c-40f7-9740-6238ba11d186))
    (pin "6" (uuid 23dedcab-2ae9-4e08-a8f1-f1241d5aae3f))
    (pin "7" (uuid 71fe8852-fb30-4ae0-9461-6e08cfb9ec95))
    (pin "8" (uuid e4a3309e-a7ce-40e2-8812-f4245abffe9a))
    (pin "9" (uuid 0e321c0e-5a2e-489d-9ae3-3aed76215ab0))
  )

  (symbol (lib_id "power:GND") (at 215.9 71.12 0) (unit 1)
    (in_bom yes) (on_board yes) (fields_autoplaced)
    (uuid 617a5047-7d39-4194-acd0-ae53d601c270)
    (property "Reference" "#PWR?" (id 0) (at 215.9 77.47 0)
      (effects (font (size 1.27 1.27)) hide)
    )
    (property "Value" "GND" (id 1) (at 215.9 76.2 0))
    (property "Footprint" "" (id 2) (at 215.9 71.12 0)
      (effects (font (size 1.27 1.27)) hide)
    )
    (property "Datasheet" "" (id 3) (at 215.9 71.12 0)
      (effects (font (size 1.27 1.27)) hide)
    )
    (pin "1" (uuid 4b292285-1a90-46bc-9898-94a81ea0be40))
  )

  (symbol (lib_id "power:GND") (at 156.21 50.8 0) (unit 1)
    (in_bom yes) (on_board yes) (fields_autoplaced)
    (uuid 85be3859-f092-479c-8d7c-be3b7ab779e2)
    (property "Reference" "#PWR?" (id 0) (at 156.21 57.15 0)
      (effects (font (size 1.27 1.27)) hide)
    )
    (property "Value" "GND" (id 1) (at 156.21 55.88 0))
    (property "Footprint" "" (id 2) (at 156.21 50.8 0)
      (effects (font (size 1.27 1.27)) hide)
    )
    (property "Datasheet" "" (id 3) (at 156.21 50.8 0)
      (effects (font (size 1.27 1.27)) hide)
    )
    (pin "1" (uuid f9fd2008-f47f-4804-b284-0661aa6f3c6e))
  )

  (symbol (lib_id "power:GND") (at 154.94 120.65 0) (unit 1)
    (in_bom yes) (on_board yes) (fields_autoplaced)
    (uuid 8606ce4c-ac55-4fad-88c6-2c0c565dc785)
    (property "Reference" "#PWR?" (id 0) (at 154.94 127 0)
      (effects (font (size 1.27 1.27)) hide)
    )
    (property "Value" "GND" (id 1) (at 154.94 125.73 0))
    (property "Footprint" "" (id 2) (at 154.94 120.65 0)
      (effects (font (size 1.27 1.27)) hide)
    )
    (property "Datasheet" "" (id 3) (at 154.94 120.65 0)
      (effects (font (size 1.27 1.27)) hide)
    )
    (pin "1" (uuid fae2960f-8177-4e59-8f39-cced8af2957d))
  )

  (symbol (lib_id "power:GND") (at 167.64 50.8 0) (unit 1)
    (in_bom yes) (on_board yes) (fields_autoplaced)
    (uuid 88b7d737-f866-4488-9add-e5c592c7a3a6)
    (property "Reference" "#PWR?" (id 0) (at 167.64 57.15 0)
      (effects (font (size 1.27 1.27)) hide)
    )
    (property "Value" "GND" (id 1) (at 167.64 55.88 0))
    (property "Footprint" "" (id 2) (at 167.64 50.8 0)
      (effects (font (size 1.27 1.27)) hide)
    )
    (property "Datasheet" "" (id 3) (at 167.64 50.8 0)
      (effects (font (size 1.27 1.27)) hide)
    )
    (pin "1" (uuid 3db865bb-ebae-4c0d-8c93-0626349dd8ad))
  )

  (symbol (lib_id "Device:C") (at 156.21 46.99 0) (unit 1)
    (in_bom yes) (on_board yes) (fields_autoplaced)
    (uuid 8a27f102-a53d-4c4d-9e73-93173b7e2c8e)
    (property "Reference" "C2" (id 0) (at 160.02 45.7199 0)
      (effects (font (size 1.27 1.27)) (justify left))
    )
    (property "Value" "100n" (id 1) (at 160.02 48.2599 0)
      (effects (font (size 1.27 1.27)) (justify left))
    )
    (property "Footprint" "" (id 2) (at 157.1752 50.8 0)
      (effects (font (size 1.27 1.27)) hide)
    )
    (property "Datasheet" "~" (id 3) (at 156.21 46.99 0)
      (effects (font (size 1.27 1.27)) hide)
    )
    (pin "1" (uuid 0d84d00c-3967-44ec-9d25-c52d4d695f84))
    (pin "2" (uuid b9c5dee4-d345-45ca-be0a-a5f6d8d35974))
  )

  (symbol (lib_id "power:GND") (at 144.78 120.65 0) (unit 1)
    (in_bom yes) (on_board yes) (fields_autoplaced)
    (uuid b79d8117-5661-4fef-85eb-e24dcb91ff83)
    (property "Reference" "#PWR?" (id 0) (at 144.78 127 0)
      (effects (font (size 1.27 1.27)) hide)
    )
    (property "Value" "GND" (id 1) (at 144.78 125.73 0))
    (property "Footprint" "" (id 2) (at 144.78 120.65 0)
      (effects (font (size 1.27 1.27)) hide)
    )
    (property "Datasheet" "" (id 3) (at 144.78 120.65 0)
      (effects (font (size 1.27 1.27)) hide)
    )
    (pin "1" (uuid f325903d-bbb4-4da2-8cea-f45cd0d89593))
  )

  (symbol (lib_id "Device:C") (at 167.64 46.99 0) (unit 1)
    (in_bom yes) (on_board yes) (fields_autoplaced)
    (uuid bad48548-d36e-4259-a16c-04bc46cb88d6)
    (property "Reference" "C1" (id 0) (at 171.45 45.7199 0)
      (effects (font (size 1.27 1.27)) (justify left))
    )
    (property "Value" "22u" (id 1) (at 171.45 48.2599 0)
      (effects (font (size 1.27 1.27)) (justify left))
    )
    (property "Footprint" "" (id 2) (at 168.6052 50.8 0)
      (effects (font (size 1.27 1.27)) hide)
    )
    (property "Datasheet" "~" (id 3) (at 167.64 46.99 0)
      (effects (font (size 1.27 1.27)) hide)
    )
    (pin "1" (uuid a1e78152-dfd1-47a5-bf70-d08652b28802))
    (pin "2" (uuid d4960182-935c-4fc0-8dd4-d5917553d2d4))
  )

  (symbol (lib_id "power:GND") (at 149.86 120.65 0) (unit 1)
    (in_bom yes) (on_board yes) (fields_autoplaced)
    (uuid df465971-0092-4830-a947-0687b97cf580)
    (property "Reference" "#PWR?" (id 0) (at 149.86 127 0)
      (effects (font (size 1.27 1.27)) hide)
    )
    (property "Value" "GND" (id 1) (at 149.86 125.73 0))
    (property "Footprint" "" (id 2) (at 149.86 120.65 0)
      (effects (font (size 1.27 1.27)) hide)
    )
    (property "Datasheet" "" (id 3) (at 149.86 120.65 0)
      (effects (font (size 1.27 1.27)) hide)
    )
    (pin "1" (uuid 709d84b6-c59d-4e20-858b-418b2c9312ed))
  )

  (symbol (lib_id "power:+3V3") (at 167.64 30.48 0) (unit 1)
    (in_bom yes) (on_board yes) (fields_autoplaced)
    (uuid e4f72999-ea5a-4b86-b63b-3d3767998e34)
    (property "Reference" "#PWR?" (id 0) (at 167.64 34.29 0)
      (effects (font (size 1.27 1.27)) hide)
    )
    (property "Value" "+3V3" (id 1) (at 167.64 25.4 0))
    (property "Footprint" "" (id 2) (at 167.64 30.48 0)
      (effects (font (size 1.27 1.27)) hide)
    )
    (property "Datasheet" "" (id 3) (at 167.64 30.48 0)
      (effects (font (size 1.27 1.27)) hide)
    )
    (pin "1" (uuid 7aa8c061-6e5a-44b0-8eae-c110352facf8))
  )

  (symbol (lib_id "Device:FerriteBead") (at 167.64 34.29 0) (unit 1)
    (in_bom yes) (on_board yes) (fields_autoplaced)
    (uuid e6ff5f2d-4299-4d82-8774-48f8495f7f59)
    (property "Reference" "FB1" (id 0) (at 171.45 32.9691 0)
      (effects (font (size 1.27 1.27)) (justify left))
    )
    (property "Value" "FerriteBead" (id 1) (at 171.45 35.5091 0)
      (effects (font (size 1.27 1.27)) (justify left))
    )
    (property "Footprint" "" (id 2) (at 165.862 34.29 90)
      (effects (font (size 1.27 1.27)) hide)
    )
    (property "Datasheet" "~" (id 3) (at 167.64 34.29 0)
      (effects (font (size 1.27 1.27)) hide)
    )
    (pin "1" (uuid 0256ba9c-fc62-4000-8d75-6f5f09defa87))
    (pin "2" (uuid 29343bf6-be27-4e9e-a0fe-d7764ee0fcf4))
  )
)
